{
   "domain" : {
      "projects" : [ ],
      "tasks" : [ ],
      "users" : [ {
         "id" : "04baaeaa-42a9-4ac2-90ae-1c0b0ac30eed",
         "name" : "olya",
         "password" : "202CB962AC59075B964B07152D234B70",
         "role" : "USER"
      }, {
         "id" : "acf33966-a2d1-4697-8e32-85e58e53b365",
         "name" : "totor",
         "password" : "202CB962AC59075B964B07152D234B70",
         "role" : "ADMIN"
      } ]
   }
}